EWT	LMA
0.01049	0.0028897
0.0098252	0.0025437
0.0084929	0.0027088
0.011599	0.0040891
0.0098269	0.0032692
0.012293	0.0040244
0.011073	0.0039512
0.01239	0.0036341
0.013439	0.0038537
0.01339	0.0038293
0.012463	0.0052683
0.01222	0.0044878
0.011659	0.0047073
0.011707	0.0054146
0.012293	0.0046829
0.011244	0.0063171
0.011024	0.0058293
0.0098537	0.0048293
0.01161	0.0067805
0.012854	0.0071707
0.025195	0.0020488
0.023951	0.0019268
0.021488	0.0017073
0.023561	0.0019756
0.021171	0.0017317
0.020244	0.011951
0.020756	0.015732
0.01939	0.013463
0.017683	0.012122
0.021341	0.015195
0.010951	0.0055122
0.0083659	0.0062927
0.011146	0.0063415
0.010024	0.0042195
0.0083902	0.0045854
0.011929	0.0035622
0.012149	0.0032235
0.011369	0.0026615
0.0098286	0.0029143
0.011195	0.0030583
0.012732	0.003561
0.012415	0.0035854
0.014049	0.0034146
0.012634	0.0041463
0.013634	0.0036829
0.01739	0.0024634
0.016073	0.0027805
0.016	0.0025366
0.016878	0.002561
0.018756	0.0025366
0.013683	0.0046585
0.014463	0.0049512
0.010561	0.0039512
0.013195	0.0047073
0.013805	0.0035366
0.018439	0.010195
0.021293	0.011805
0.01622	0.0082439
0.020073	0.010659
0.017951	0.0093902
0.0046585	0.0027317
0.0043171	0.0027073
0.0052195	0.0054634
0.0042683	0.0027317
0.0045122	0.0028049
0.010122	0.011122
0.0093415	0.0091463
0.014073	0.012805
0.014463	0.012561
0.011293	0.0087805
0.0069756	0.0041951
0.0059268	0.0032439
0.0058293	0.003439
0.0061707	0.0027317
0.0071951	0.0034878
0.0090732	0.0068537
0.0086585	0.0073659
0.0078049	0.0054634
0.0082683	0.0053171
0.0074634	0.0051951
0.016951	0.0040488
0.018293	0.0032195
0.018732	0.0033171
0.022683	0.0037561
0.018707	0.0037317
0.0084634	0.002878
0.0073415	0.0027561
0.0077073	0.0024878
0.0071951	0.0022195
0.0067561	0.0023415
0.01178	0.0060244
0.014098	0.0075122
0.012756	0.0072195
0.013415	0.0080732
0.010195	0.0042683
0.035268	0.0043659
0.03439	0.0046829
0.026683	0.003561
0.052488	0.0060488
0.02939	0.0046341
0.006878	0.0035854
0.0067805	0.0029024
0.007878	0.0038293
0.0057561	0.0019268
0.0059756	0.0036341
0.01186	0.00584
0.0094835	0.0033297
0.010482	0.004006
0.01013	0.0037403
0.009959	0.0038525
0.0090364	0.0027273
0.0098187	0.0021503
0.011897	0.0029485
0.0085227	0.0037273
0.011533	0.0041333
0.0091463	0.0029024
0.0094878	0.002561
0.0082927	0.0026829
0.009	0.0024878
0.0077561	0.0030488
0.0074146	0.0033415
0.0068537	0.0037805
0.0069024	0.0037073
0.0068537	0.0031463
0.0061951	0.0025854
0.011488	0.0057317
0.011195	0.0055854
0.01239	0.0066098
0.010707	0.0062439
0.011415	0.0060976
0.0082927	0.0050244
0.0086585	0.007122
0.010098	0.0068537
0.011122	0.0072439
0.0096829	0.0062927
0.014171	0.0040732
0.014829	0.0040976
0.014561	0.003439
0.013707	0.0038293
0.013878	0.0036098
0.0074146	0.0051951
0.0060488	0.0045854
0.0069268	0.0051707
0.0066098	0.0046585
0.0063171	0.0044634
0.0059268	0.0043415
0.0044878	0.0028049
0.0051707	0.004122
0.0045122	0.0029024
0.0050732	0.0038049
0.0077073	0.005
0.0076585	0.004439
0.0084146	0.0044634
0.0077561	0.0052927
0.0076585	0.0049268
0.0072195	0.006439
0.0070732	0.0059512
0.0062195	0.0057073
0.005878	0.0049268
0.0061463	0.0068537
0.010366	0.010585
0.0087805	0.0070488
0.0079756	0.008122
0.0095366	0.0095854
0.0091707	0.0090732
0.0078049	0.0069756
0.0077317	0.0055366
0.0082439	0.0066829
0.0088537	0.0070732
0.0082439	0.0064878
0.0098537	0.0036585
0.0088537	0.0041951
0.0073659	0.0031707
0.0096341	0.0041951
0.0063171	0.0033171
0.00036585	0.003878
0.00031707	0.0028293
0.00039024	0.0030976
0.00043902	0.0035366
0.00029268	0.0027561
0.0065122	0.0057073
0.0072439	0.0070488
0.0066585	0.0057805
0.006122	0.005439
0.0060488	0.0053415
0.0080732	0.0037805
0.010171	0.0046098
0.006561	0.0039024
0.0086098	0.0047073
0.0054634	0.0043171
0.0049512	0.0025854
0.0042195	0.003
0.0058537	0.0041707
0.0049512	0.0029024
0.0049512	0.0046098
0.0027317	0.0041951
0.0010488	0.003122
0.0020244	0.0036585
0.0017561	0.0027561
0.0021463	0.0032927
0.0061707	0.0032683
0.0076585	0.0047561
0.0059512	0.003439
0.006	0.0042195
0.0066829	0.0046341
0.02361	0.0095854
0.023488	0.0094878
0.021341	0.0077317
0.02422	0.0087561
0.023146	0.0095366
0.009122	0.0050244
0.0087561	0.006
0.013927	0.0060244
0.012512	0.0065122
0.012732	0.0060976
0.0087073	0.007561
0.0073171	0.0059024
0.0088293	0.0070732
0.0085854	0.0074878
0.0072195	0.0066098
0.016854	0.013341
0.015122	0.012268
0.015805	0.011951
0.014049	0.011024
0.015317	0.012683
0.0058537	0.0067805
0.0094634	0.0087805
0.0043902	0.0060732
0.0090244	0.0085366
0.0091463	0.0082439
0.006175	0.005525
0.0069828	0.0059698
0.0066737	0.0060632
0.0065577	0.0063181
0.0059238	0.0056305
0.013634	0.0090976
0.010829	0.0059756
0.01139	0.007439
0.013976	0.009
0.012146	0.0069268
0.0066585	0.0050244
0.0050732	0.0031463
0.0060976	0.0045366
0.0049024	0.0032683
0.0046098	0.0042195
0.011488	0.0059512
0.012415	0.0070488
0.01378	0.0070976
0.011927	0.0075366
0.012829	0.0092927
0.0067805	0.0037561
0.0063415	0.0035122
0.0070488	0.0036341
0.0066585	0.0029512
0.0060488	0.0035366
0.0097805	0.0086585
0.0093415	0.0079512
0.0085366	0.0072195
0.008878	0.0085854
0.0092439	0.0077805
0.0063659	0.0060976
0.0045122	0.004561
0.0041951	0.0054634
0.0037073	0.0056585
0.0043171	0.006561
0.024122	0.0050488
0.027439	0.0053171
0.025585	0.0056829
0.027268	0.0057805
0.018561	0.0043171
0.039024	0.0083659
0.04722	0.0091463
0.035878	0.008
0.036244	0.0072927
0.043927	0.0083902
0.012146	0.0055122
0.011195	0.0042683
0.01339	0.0046585
0.010707	0.005439
0.010634	0.0047317
0.011122	0.0064146
0.0090732	0.0050244
0.0093659	0.0052683
0.0088537	0.0046829
0.0090976	0.0048537
0.0089927	0.0080584
0.011772	0.0074007
0.0095441	0.0075076
0.0075458	0.0076446
0.010944	0.0079719
0.0098293	0.0042927
0.011024	0.0048537
0.011146	0.0042927
0.011122	0.0052195
0.011098	0.0055122
0.012293	0.0039268
0.012707	0.003878
0.011951	0.0036829
0.014341	0.004561
0.011659	0.003878
0.0068049	0.0058537
0.0066829	0.0059756
0.0059512	0.0039756
0.0068537	0.0057317
0.0072927	0.0056341
0.0093171	0.0069268
0.0077805	0.0059024
0.0077561	0.0058537
0.0082927	0.0064634
0.0073902	0.0051951
0.011277	0.0039051
0.0095327	0.0026168
0.0094976	0.0029984
0.011181	0.0022296
0.0096194	0.0017474
0.017244	0.002439
0.016341	0.0023659
0.016463	0.0024146
0.017073	0.0023659
0.024732	0.003439
0.008	0.0031951
0.0079024	0.0032683
0.0020976	0.0034878
0.0052195	0.0035122
0.0063902	0.0031463
0.0087586	0.0057241
0.0063539	0.0058981
0.0079585	0.0072318
0.0065	0.0054615
0.0078652	0.0051311
